2. Concurrent Statement (Multiplexer)/simulation/qsim/mux.msim.vcd
$comment
	File created using the following command:
		vcd file mux.msim.vcd -direction
$end
$date
	Tue Feb 12 15:05:35 2019
$end
$version
	ModelSim Version 10.1d
$end
$timescale
	1ps
$end
$scope module mux_vlg_vec_tst $end
$var reg 1 ! a $end
$var reg 1 " b $end
$var reg 1 # c $end
$var reg 1 $ d $end
$var reg 2 % s [1:0] $end
$var wire 1 & x $end
$var wire 1 ' sampler $end
$scope module i1 $end
$var wire 1 ( gnd $end
$var wire 1 ) vcc $end
$var wire 1 * unknown $end
$var tri1 1 + devclrn $end
$var tri1 1 , devpor $end
$var tri1 1 - devoe $end
$var wire 1 . d~combout $end
$var wire 1 / b~combout $end
$var wire 1 0 a~combout $end
$var wire 1 1 Mux0~0_combout $end
$var wire 1 2 c~combout $end
$var wire 1 3 Mux0~1_combout $end
$var wire 1 4 s~combout [1] $end
$var wire 1 5 s~combout [0] $end
$upscope $end
$upscope $end
$enddefinitions $end
#0
$dumpvars
1!
0"
1#
0$
b0 %
1&
x'
0(
1)
x*
1+
1,
1-
0.
0/
10
11
12
13
05
04
$end
#10000
1"
0#
1/
02
0'
#20000
0!
1$
1#
00
1.
12
1'
01
03
0&
#30000
0"
0/
0'
#40000
b1 %
0$
15
0.
1'
#50000
1!
0#
1"
1$
10
02
1/
1.
0'
11
13
1&
#60000
1#
0$
12
0.
1'
#70000
0!
0"
00
0/
0'
01
03
0&
#80000
b11 %
b10 %
0#
1"
05
14
02
1/
1'
#90000
1$
1!
0"
1.
10
0/
0'
#100000
1#
0!
12
00
1'
13
1&
#110000
0$
1"
0.
1/
0'
#120000
b11 %
0"
15
0/
1'
11
03
0&
#130000
0#
1!
1$
02
10
1.
0'
13
1&
#140000
0!
0$
00
0.
1'
03
0&
#150000
1"
1/
0'
#160000
b1 %
b0 %
1#
1!
1$
05
04
12
10
1.
1'
13
1&
#170000
0$
0.
0'
#180000
b10 %
b11 %
0!
15
14
00
1'
03
0&
#190000
0#
1$
b1 %
02
1.
04
0'
13
1&
#200000
1!
10
1'
#210000
0"
b11 %
0!
0/
14
00
0'
#220000
1#
12
1'
#230000
0$
1"
b1 %
0.
1/
04
0'
#250000
0#
1$
b11 %
02
1.
14
1'
#270000
b10 %
1!
b0 %
05
04
10
0'
#290000
1#
b1 %
b11 %
12
15
14
1'
#300000
0$
0!
b10 %
0.
00
05
0'
03
01
13
0&
1&
#310000
0"
0/
1'
#320000
1!
b11 %
10
15
0'
11
03
0&
#330000
0#
1$
1"
0!
02
1.
1/
00
1'
13
1&
#340000
0"
0/
0'
#350000
b10 %
1#
0$
1!
05
12
0.
10
1'
01
03
13
0&
1&
#360000
b0 %
1"
0#
04
1/
02
0'
03
11
13
0&
1&
#370000
1$
0!
1.
00
1'
01
03
0&
#380000
b1 %
1#
15
12
0'
11
13
1&
#390000
0"
0$
0/
0.
1'
01
03
0&
#400000
0#
02
0'
#410000
b0 %
05
1'
