1. Basic Gates/simulation/qsim/gates.msim.vcd
$comment
	File created using the following command:
		vcd file gates.msim.vcd -direction
$end
$date
	Thu Jan 24 17:03:12 2019
$end
$version
	ModelSim Version 10.1d
$end
$timescale
	1ps
$end
$scope module gates_vlg_vec_tst $end
$var reg 1 ! a $end
$var reg 1 " b $end
$var wire 1 # c $end
$var wire 1 $ f $end
$var wire 1 % h $end
$var wire 1 & k $end
$var wire 1 ' sampler $end
$scope module i1 $end
$var wire 1 ( gnd $end
$var wire 1 ) vcc $end
$var wire 1 * unknown $end
$var tri1 1 + devclrn $end
$var tri1 1 , devpor $end
$var tri1 1 - devoe $end
$var wire 1 . a~combout $end
$var wire 1 / b~combout $end
$var wire 1 0 c~0_combout $end
$var wire 1 1 f~0_combout $end
$var wire 1 2 k~0_combout $end
$upscope $end
$upscope $end
$enddefinitions $end
#0
$dumpvars
0!
0"
0#
0$
1%
0&
x'
0(
1)
x*
1+
1,
1-
0.
0/
00
01
02
$end
#40000
1!
1.
0'
12
11
0%
1&
1$
#80000
0!
0.
1'
02
01
1%
0&
0$
#120000
1"
1/
0'
12
11
1&
1$
#160000
0"
0/
1'
02
01
0&
0$
#200000
1!
1"
1.
1/
0'
11
10
0%
1$
1#
#280000
0!
0"
0.
0/
1'
01
00
1%
0$
0#
#320000
1"
1/
0'
12
11
1&
1$
#360000
0"
0/
1'
02
01
0&
0$
#400000
1!
1.
0'
12
11
0%
1&
1$
#440000
0!
0.
1'
02
01
1%
0&
0$
#480000
1!
1.
0'
12
11
0%
1&
1$
#520000
1"
1/
1'
02
10
0&
1#
#560000
0!
0.
0'
12
00
1%
1&
0#
#600000
0"
0/
1'
02
01
0&
0$
